id,name,model_id:id,group_id:id,perm_read,perm_write,perm_create,perm_unlink
access_master_propinsi_master,access_master_propinsi_master,model_master_propinsi,group_master_elahan,1,1,1,1
access_master_propinsi_transaksi,access_master_propinsi_transaksi,model_master_propinsi,group_transaksi_elahan,1,0,0,0
access_master_kabupaten_master,access_master_kabupaten_master,model_master_kabupaten,group_master_elahan,1,1,1,1
access_master_kabupaten_transaksi,access_master_kabupaten_transaksi,model_master_kabupaten,group_transaksi_elahan,1,0,0,0
access_master_kecamatan_master,access_master_kabupaten_master,model_master_kecamatan,group_master_elahan,1,1,1,1
access_master_kecamatan_transaksi,access_master_kecamatan_transaksi,model_master_kecamatan,group_transaksi_elahan,1,0,0,0
access_master_kelurahan_master,access_master_kelurahan_master,model_master_kelurahan,group_master_elahan,1,1,1,1
access_master_kelurahan_transaksi,access_master_kelurahan_transaksi,model_master_kelurahan,group_transaksi_elahan,1,0,0,0
access_master_akta_master,access_master_akta_master,model_master_akta,group_master_elahan,1,1,1,1
access_master_akta_transaksi,access_master_akta_transaksi,model_master_akta,group_transaksi_elahan,1,0,0,0
access_master_status_pembayaran_master,access_master_status_pembayaran_master,model_master_status_pembayaran,group_master_elahan,1,1,1,1
access_master_status_pembayaran_transaksi,access_master_status_pembayaran_transaksi,model_master_status_pembayaran,group_transaksi_elahan,1,0,0,0
access_master_kategori_master,access_master_kategori_master,model_master_kategori,group_master_elahan,1,1,1,1
access_master_kategori_transaksi,access_master_kategori_transaksi,model_master_kategori,group_transaksi_elahan,1,0,0,0
access_master_seksi_master,access_master_seksi_master,model_master_seksi,group_master_elahan,1,1,1,1
access_master_seksi_transaksi,access_master_seksi_transaksi,model_master_seksi,group_transaksi_elahan,1,0,0,0
access_master_seksi_detail_master,access_master_seksi_detail_master,model_master_seksi_detail,group_master_elahan,1,1,1,1
access_master_seksi_detail_transaksi,access_master_seksi_detail_transaksi,model_master_seksi_detail,group_transaksi_elahan,1,0,0,0
access_master_pemilik_lahan_master,access_master_pemilik_lahan_master,model_master_pemilik_lahan,group_master_elahan,1,1,1,1
access_master_pemilik_lahan_transaksi,access_master_pemilik_lahan_transaksi,model_master_pemilik_lahan,group_transaksi_elahan,1,1,1,1
access_master_proses_pembebasan_lahan_master,access_master_proses_pembebasan_lahan_master,model_master_proses_pembebasan_lahan,group_master_elahan,1,1,1,1
access_master_proses_pembebasan_lahan_transaksi,access_master_proses_pembebasan_lahan_transaksi,model_master_proses_pembebasan_lahan,group_transaksi_elahan,1,1,1,1
access_master_sta_master,access_master_sta_master,model_master_sta,group_master_elahan,1,0,0,0
access_master_sta_transaksi,access_master_sta_transaksi,model_master_sta,group_transaksi_elahan,1,1,1,1
access_master_permasalahan_detail_master,access_master_permasalahan_detail_master,model_master_permasalahan_detail,group_master_elahan,1,1,1,1
access_master_permasalahan_detail_transaksi,access_master_permasalahan_detail_transaksi,model_master_permasalahan_detail,group_transaksi_elahan,1,1,1,1
access_master_penanggungjawab_detail_master,access_master_penanggungjawab_detail_master,model_master_penanggungjawab_detail,group_master_elahan,1,1,1,1
access_master_penanggungjawab_detail_transaksi,access_master_penanggungjawab_detail_transaksi,model_master_penanggungjawab_detail,group_transaksi_elahan,1,1,1,1
